{
  "componentId" : "c9384ec3-3aa8-4b1c-89ea-40e6ab17ccdc",
  "packageId" : "1f404f4b-1556-4a56-a40b-7ea8b67d768c",
  "packageVersion" : "1",
  "componentVersion" : "1",
  "componentType" : "process",
  "createdDate" : "20210210 073909.000",
  "createdBy" : "munish.bhugowandeen-ext",
  "deleted" : "false",
  "shareable" : "false",
  "componentName" : "AtomSphere API: Copy Extensions between Environments"
}